…
ids_self <- tweet_words %>% 
  filter(screenName == "matteosalvinimi", word == "salvini") %>% 
  select(id)

twdat %>% 
  filter( id %in% unlist(ids_self)) %>% 
  select(text) 

## # A tibble: 1,095 x 1
##    text                                                                    
##    <chr>                                                                   
##  1 #Salvini: Oggi UE ha dato l’ennesima prova di essere un ente ASTRATTO. …
##  2 #Salvini: Reati commessi da stranieri l’anno scorso sono 241mila, 700 a…
##  3 #Salvini: Torneremo a far valere l’INTERESSE NAZIONALE.  #Zapping #RaiR…
##  4 #Salvini: A bordo della nave daremo tutta l’assistenza necessaria. Ma n…
##  5 #Salvini: un solo Paese non può gestire tutto quello che sta accadendo.…
##  6 #Salvini: sto valutando di fare procedure di riconoscimento prima ancor…
##  7 #Salvini: Con 5 milioni di italiani in povertà assoluta, di cui 1,2mili…
##  8 #Salvini: per quanto mi riguarda dalla #Diciotti non sbarca NESSUNO. #Z…
##  9 "“Salvini muori”.\nAnche a Rovereto i vigliacchi cercano, inutilmente, …
## 10 #Salvini: Pedaggi autostradali tra i più cari in assoluto. Follia. #non…
## # ... with 1,085 more rows
…
